\relax 
\catcode `"\active 
\catcode `<\active 
\catcode `>\active 
\@nameuse{es@quoting}
\select@language{spanish}
\@writefile{toc}{\select@language{spanish}}
\@writefile{lof}{\select@language{spanish}}
\@writefile{lot}{\select@language{spanish}}
\@writefile{toc}{\contentsline {section}{\numberline {I}Sistema General}{1}}
\@writefile{lof}{\contentsline {figure}{\numberline {1}{\ignorespaces Sistema General}}{1}}
\newlabel{fig:sistemaGeneral}{{1}{1}}
\@writefile{toc}{\contentsline {section}{\numberline {II}Segmentaci\IeC {\'o}n en M\IeC {\'o}dulos Espec\IeC {\'\i }ficos}{1}}
\@writefile{toc}{\contentsline {subsection}{\numberline {\unhbox \voidb@x \hbox {II-A}}M\IeC {\'o}dulo de Procesamiento de Datos}{1}}
\@writefile{lof}{\contentsline {figure}{\numberline {2}{\ignorespaces M\IeC {\'o}dulo de Procesamiento de Datos}}{1}}
\newlabel{fig:moduloProcesamiento}{{2}{1}}
\@writefile{toc}{\contentsline {subsection}{\numberline {\unhbox \voidb@x \hbox {II-B}}M\IeC {\'o}dulo de Adquisici\IeC {\'o}n de Datos}{1}}
\@writefile{lof}{\contentsline {figure}{\numberline {3}{\ignorespaces M\IeC {\'o}dulo de Adquisici\IeC {\'o}n de Datos}}{1}}
\newlabel{fig:moduloAdquisicion}{{3}{1}}
\@writefile{toc}{\contentsline {subsection}{\numberline {\unhbox \voidb@x \hbox {II-C}}M\IeC {\'o}dulo de Control y Monitoreo Remoto}{1}}
\@writefile{lof}{\contentsline {figure}{\numberline {4}{\ignorespaces M\IeC {\'o}dulo de Control y Monitoreo Remoto}}{1}}
\newlabel{fig:moduloWifi}{{4}{1}}
\@writefile{toc}{\contentsline {subsection}{\numberline {\unhbox \voidb@x \hbox {II-D}}M\IeC {\'o}dulo Parasol}{1}}
\@writefile{lof}{\contentsline {figure}{\numberline {5}{\ignorespaces M\IeC {\'o}dulo Parasol}}{2}}
\newlabel{fig:moduloParasol}{{5}{2}}
\@writefile{toc}{\contentsline {subsection}{\numberline {\unhbox \voidb@x \hbox {II-E}}M\IeC {\'o}dulo de Iluminaci\IeC {\'o}n}{2}}
\@writefile{lof}{\contentsline {figure}{\numberline {6}{\ignorespaces M\IeC {\'o}dulo de Iluminaci\IeC {\'o}n}}{2}}
\newlabel{fig:moduloIluminacion}{{6}{2}}
\@writefile{toc}{\contentsline {subsection}{\numberline {\unhbox \voidb@x \hbox {II-F}}M\IeC {\'o}dulo de Bombeo de Agua}{2}}
\@writefile{lof}{\contentsline {figure}{\numberline {7}{\ignorespaces M\IeC {\'o}dulo de Bombeo de Agua}}{2}}
\newlabel{fig:moduloBombeo}{{7}{2}}
\@writefile{toc}{\contentsline {subsection}{\numberline {\unhbox \voidb@x \hbox {II-G}}Modulo Disipador de Temperatura}{2}}
\@writefile{toc}{\contentsline {section}{\numberline {III}Interconexi\IeC {\'o}n de M\IeC {\'o}dulos}{2}}
\@writefile{lof}{\contentsline {figure}{\numberline {8}{\ignorespaces M\IeC {\'o}dulo Disipador de Temperatura}}{2}}
\newlabel{fig:moduloDisipador}{{8}{2}}
\@writefile{lof}{\contentsline {figure}{\numberline {9}{\ignorespaces Interconexi\IeC {\'o}n de M\IeC {\'o}dulos}}{2}}
\newlabel{fig:modulosInterconexion}{{9}{2}}
\@writefile{toc}{\contentsline {section}{\numberline {IV}Responsables}{2}}
